[{
  "apiVersion": "app.k8s.io/v1beta1",
  "kind": "Application",
  "metadata": {
    "name": "wordpress-01",
    "namespace": "default",
    "annotations": {
      "alauda.io/creator": "bob",
      "app.alauda.io/revision": "2"
    }
  },
  "spec": {
    "type": "wordpress",
    "selector": {
      "matchLabels": {
        "app.alauda.io/name": "wordpress-01.default"
      }
    },
    "componentKinds": [
      {
        "group": "",
        "kind": "Service"
      },
      {
        "group": "apps",
        "kind": "StatefulSet"
      },
      {
        "group": "apps",
        "kind": "Deployment"
      }
    ],
    "version": "4.9.4",
    "description": "WordPress is open source software you can use to create a beautiful website, blog, or app.",
    "maintainers": [
      {
        "name": "Kenneth Owens",
        "email": "kow3ns@github.com"
      }
    ],
    "owners": [
      "Kenneth Owens kow3ns@github.com"
    ],
    "keywords": [
      "cms",
      "blog",
      "wordpress"
    ],
    "links": [
      {
        "description": "About",
        "url": "https://wordpress.org/"
      },
      {
        "description": "Web Server Dashboard",
        "url": "https://metrics/internal/wordpress-01/web-app"
      },
      {
        "description": "Mysql Dashboard",
        "url": "https://metrics/internal/wordpress-01/mysql"
      }
    ]
  },
  "status": {
    "state": "Running"
  }
},
  {
    "apiVersion": "v1",
    "kind": "Service",
    "metadata": {
      "name": "web1",
      "namespace": "default",
      "labels": {
        "app": "nginx",
        "app.alauda.io/name": "wordpress-01.default"
      }
    },
    "spec": {
      "ports": [
        {
          "port": 8080
        }
      ],
      "selector": {
        "app": "nginx"
      }
    }
  },
  {
    "apiVersion": "apps/v1",
    "kind": "StatefulSet",
    "metadata": {
      "name": "web",
      "namespace": "default",
      "labels": {
        "app.alauda.io/name": "wordpress-01.default"
      }
    },
    "spec": {
      "selector": {
        "matchLabels": {
          "app": "nginx"
        }
      },
      "serviceName": "nginx",
      "replicas": 3,
      "updateStrategy": {
        "type": "RollingUpdate",
        "rollingUpdate": {
          "partition": 2
        }
      },
      "template": {
        "metadata": {
          "labels": {
            "app": "nginx"
          }
        },
        "spec": {
          "terminationGracePeriodSeconds": 10,
          "containers": [
            {
              "name": "nginx",
              "image": "k8s.gcr.io/nginx-slim:0.8",
              "ports": [
                {
                  "containerPort": 80,
                  "name": "web"
                }
              ],
              "volumeMounts": [
                {
                  "name": "www",
                  "mountPath": "/usr/share/nginx/html"
                }
              ]
            }
          ]
        }
      },
      "volumeClaimTemplates": [
        {
          "metadata": {
            "name": "www"
          },
          "spec": {
            "accessModes": [
              "ReadWriteOnce"
            ],
            "storageClassName": "my-storage-class",
            "resources": {
              "requests": {
                "storage": "1Gi"
              }
            }
          }
        }
      ]
    }
  },
  {
    "apiVersion": "apps/v1",
    "kind": "Deployment",
    "metadata": {
      "name": "web1",
      "namespace": "default",
      "labels": {
        "app.alauda.io/name": "wordpress-01.default"
      }
    },
    "spec": {
      "replicas": 2,
      "selector": {
        "matchLabels": {
          "app": "nginx"
        }
      },
      "template": {
        "metadata": {
          "labels": {
            "app": "nginx"
          }
        },
        "spec": {
          "containers": [
            {
              "image": "nginx:1.9.0",
              "name": "nginx-app",
              "ports": [
                {
                  "containerPort": 82,
                  "name": "web1"
                }
              ]
            }
          ]
        }
      }
    }
  },
  {
    "apiVersion": "app.k8s.io/v1beta1",
    "kind": "ApplicationHistory",
    "metadata": {
      "creationTimestamp": "2020-05-21T09:09:24Z",
      "generation": 1,
      "labels": {
        "app.alauda.io/name": "wordpress-01.default"
      },
      "name": "wordpress-01-2",
      "namespace": "default",
      "resourceVersion": "150605061",
      "selfLink": "/apis/app.k8s.io/v1beta1/namespaces/alauda/applicationhistories/wordpress-01-1",
      "uid": "408809e8-afb1-4b2a-ac1c-48782d5bfb92"
    },
    "spec": {
      "creationTimestamp": "2020-05-21T09:09:23Z",
      "resourceDiffs": {
        "update": [
          {
            "kind": "Service",
            "name": "web1"
          }
        ],
        "create": [
          {
            "kind": "Deployment",
            "name": "web1"
          },
          {
            "kind": "StatefulSet",
            "name": "web"
          }
        ]
      },
      "revision": 2,
      "yaml": "- apiVersion: v1\n  kind: Service\n  metadata:\n    labels:\n      a: b\n      app: nginx\n      app.k8s.io/name: wordpress-01.alauda\n      app.k8s.io/uuid: 6a3fa6dc-eb39-4418-9e9d-1374ebb1b1eb\n      app.kubernetes.io/name: wordpress-01\n    name: web1\n    namespace: default\n  spec:\n    ports:\n    - port: 8080\n    selector:\n      app: nginx\n- apiVersion: apps/v1\n  kind: Deployment\n  metadata:\n    labels:\n      app.k8s.io/name: wordpress-01.alauda\n      app.k8s.io/uuid: 6a3fa6dc-eb39-4418-9e9d-1374ebb1b1eb\n      app.kubernetes.io/name: wordpress-01\n    name: web1\n    namespace: default\n  spec:\n    replicas: 2\n    selector:\n      matchLabels:\n        app: nginx\n    template:\n      metadata:\n        labels:\n          app: nginx\n          app.k8s.io/name: wordpress-01.alauda\n          app.kubernetes.io/name: wordpress-01\n      spec:\n        containers:\n        - image: nginx:1.9.0\n          name: nginx-app\n          ports:\n          - containerPort: 82\n            name: web1\n- apiVersion: apps/v1\n  kind: StatefulSet\n  metadata:\n    labels:\n      app.k8s.io/name: wordpress-01.alauda\n      app.k8s.io/uuid: 6a3fa6dc-eb39-4418-9e9d-1374ebb1b1eb\n      app.kubernetes.io/name: wordpress-01\n    name: web\n    namespace: default\n  spec:\n    replicas: 3\n    selector:\n      matchLabels:\n        app: nginx\n    serviceName: nginx\n    template:\n      metadata:\n        labels:\n          app: nginx\n          app.k8s.io/name: wordpress-01.alauda\n          app.kubernetes.io/name: wordpress-01\n      spec:\n        containers:\n        - image: k8s.gcr.io/nginx-slim:0.8\n          name: nginx\n          ports:\n          - containerPort: 80\n            name: web\n          volumeMounts:\n          - mountPath: /usr/share/nginx/html\n            name: www\n        terminationGracePeriodSeconds: 10\n    updateStrategy:\n      rollingUpdate:\n        partition: 2\n      type: RollingUpdate\n    volumeClaimTemplates:\n    - metadata:\n        name: www\n      spec:\n        accessModes:\n        - ReadWriteOnce\n        resources:\n          requests:\n            storage: 1Gi\n        storageClassName: my-storage-class\n- apiVersion: app.k8s.io/v1beta1\n  kind: Application\n  metadata:\n    annotations:\n      alauda.io/creator: bob\n    generation: 1\n    labels:\n      app.k8s.io/uuid: 6a3fa6dc-eb39-4418-9e9d-1374ebb1b1eb\n      app.kubernetes.io/name: wordpress-01\n    name: wordpress-01\n    namespace: default\n  spec:\n    componentKinds:\n    - group: \"\"\n      kind: Service\n    - group: apps\n      kind: Deployment\n    - group: apps\n      kind: StatefulSet\n    descriptor: {}\n    selector:\n      matchLabels:\n        app.alauda.io/name: wordpress-01.default\n        app.kubernetes.io/name: wordpress-01\n"
    },
    "status": {}
  },
  {
    "apiVersion": "app.k8s.io/v1beta1",
    "kind": "ApplicationHistory",
    "metadata": {
      "creationTimestamp": "2020-05-21T09:09:43Z",
      "generation": 1,
      "labels": {
        "app.alauda.io/name": "wordpress-01.default",
        "app.kubernetes.io/name": "wordpress-01"
      },
      "name": "wordpress-01-1",
      "namespace": "default",
      "resourceVersion": "150605208",
      "selfLink": "/apis/app.k8s.io/v1beta1/namespaces/alauda/applicationhistories/wordpress-01-2",
      "uid": "07b5d94b-5cf2-4f45-84b4-89c73c2fd37a"
    },
    "spec": {
      "creationTimestamp": "2020-05-21T09:09:42Z",
      "resourceDiffs": {
        "create": [
          {
            "kind": "Service",
            "name": "web1"
          }
        ]
      },
      "revision": 1,
      "yaml": "- apiVersion: v1\n  kind: Service\n  metadata:\n    labels:\n      app: nginx\n      app.k8s.io/name: wordpress-01.alauda\n      app.k8s.io/uuid: 2e9d2c3d-6e08-4e1c-8682-06365b148164\n      app.kubernetes.io/name: wordpress-01\n    name: web1\n    namespace: default\n  spec:\n    ports:\n    - port: 8080\n    selector:\n      app: nginx\n- apiVersion: app.k8s.io/v1beta1\n  kind: Application\n  metadata:\n    annotations:\n      alauda.io/creator: alice\n      app.alauda.io/change-cause: test111\n    generation: 3\n    labels:\n      app.k8s.io/uuid: 2e9d2c3d-6e08-4e1c-8682-06365b148164\n      app.kubernetes.io/name: wordpress-01\n    name: wordpress-01\n    namespace: default\n  spec:\n    componentKinds:\n    - group: \"\"\n      kind: Service\n    descriptor: {}\n    selector:\n      matchLabels:\n        app.alauda.io/name: wordpress-01.default\n        app.kubernetes.io/name: wordpress-01\n"
    },
    "status": {}
  }
]